…
hydro_out<-generate_vectors(
  input=hydro_out,
  points=file.path(save_dir, "sites.shp"), # These are optional sampling locations
  site_id_col="site_id", # Column name in points layer that corresponds to 
  #                      # unique IDs that will be available in data products
  snap_distance=100L, # points that are more than 100m from closest stream are excluded
  break_on_noSnap =F, # default is to stop when any points don't snap, this will ignore that
  return_products=T,
  temp_dir=NULL,
  verbose=T
) 

ihydro_layers(hydro_out)
#> # A tibble: 23 × 3
#>    layer_name        data_type data_group
#>    <chr>             <chr>     <chr>     
#>  1 dem_final         Raster    hydro     
#>  2 dem_d8            Raster    hydro     
#>  3 dem_accum_d8      Raster    hydro     
#>  4 dem_accum_d8_sca  Raster    hydro     
#>  5 dem_streams_d8    Raster    hydro     
#>  6 elev_ned_30m      Raster    loi       
#>  7 Subbasins_poly    Table     hydro     
#>  8 stream_lines      Table     hydro     
#>  9 stream_links      Table     hydro     
#> 10 stream_links_attr Table     hydro     
#> # ℹ 13 more rows
…
``` r

hydro_out<-trace_flowpaths(
  input=hydro_out,
  return_products=T,
  pwise_dist=T, # This will calculate all downstream flow-connected pairwise distances
  pwise_all_links=F, # This will calculate all flow un-connected pairwise distances (can be very time consuming)
  temp_dir=NULL,
  verbose=T
)

ihydro_layers(hydro_out)
#> # A tibble: 27 × 3
#>    layer_name       data_type data_group
#>    <chr>            <chr>     <chr>     
#>  1 dem_final        Raster    hydro     
#>  2 dem_d8           Raster    hydro     
#>  3 dem_accum_d8     Raster    hydro     
#>  4 dem_accum_d8_sca Raster    hydro     
#>  5 dem_streams_d8   Raster    hydro     
#>  6 elev_ned_30m     Raster    loi       
#>  7 ds_flowpaths     Table     flow_path 
#>  8 us_flowpaths     Table     flow_path 
#>  9 Subbasins_poly   Table     hydro     
#> 10 stream_lines     Table     hydro     
#> # ℹ 17 more rows
…
ihydro_layers(hydro_out_sparse)
#> # A tibble: 27 × 3
#>    layer_name       data_type data_group
#>    <chr>            <chr>     <chr>     
#>  1 dem_final        Raster    hydro     
#>  2 dem_d8           Raster    hydro     
#>  3 dem_accum_d8     Raster    hydro     
#>  4 dem_accum_d8_sca Raster    hydro     
#>  5 dem_streams_d8   Raster    hydro     
#>  6 elev_ned_30m     Raster    loi       
#>  7 ds_flowpaths     Table     flow_path 
#>  8 us_flowpaths     Table     flow_path 
#>  9 Subbasins_poly   Table     hydro     
#> 10 stream_lines     Table     hydro     
#> # ℹ 17 more rows
…
# New data available in `fcon_pwise_dist` and 'funcon_pwise_dist'
# *_pwise_dist # -> tables of downstream path lengths between each pair of link_ids,
#                   #    with flow-connected in-stream distances (directed_path_length),
#                   #    flow-unconnected in-stream distances (undirected_path_length),
#                   #    and proportions of shared catchments (prop_shared_catchment)
#                   #    and log-transformed catchment proportions (prop_shared_logcatchment)


con <- DBI::dbConnect(RSQLite::SQLite(), hydro_out$outfile)
ihydro_layers(hydro_out)
#> # A tibble: 29 × 3
#>    layer_name       data_type data_group
#>    <chr>            <chr>     <chr>     
#>  1 dem_final        Raster    hydro     
#>  2 dem_d8           Raster    hydro     
#>  3 dem_accum_d8     Raster    hydro     
#>  4 dem_accum_d8_sca Raster    hydro     
#>  5 dem_streams_d8   Raster    hydro     
#>  6 elev_ned_30m     Raster    loi       
#>  7 ds_flowpaths     Table     flow_path 
#>  8 us_flowpaths     Table     flow_path 
#>  9 Catchment_poly   Table     hydro     
#> 10 Subbasins_poly   Table     hydro     
#> # ℹ 19 more rows
…
dmat
#> # A tibble: 4,056 × 6
#> # Groups:   origin, destination [1,014]
#>    origin destination value_diff dist_type                  dist `Distance Type`
#>    <chr>  <chr>            <dbl> <chr>                     <dbl> <chr>          
#>  1 1000.1 1003.1               1 directed_path_length    4.62e+3 Flow Connected 
#>  2 1000.1 1003.1               1 undirected_path_length  4.62e+3 Flow Unconnect…
#>  3 1000.1 1003.1               1 prop_shared_catchment   6.55e-1 Shared Catchme…
#>  4 1000.1 1003.1               1 prop_shared_logcatchme… 9.76e-1 Shared log-Cat…
#>  5 1000.1 101.1                3 directed_path_length    0       Flow Connected 
#>  6 1000.1 101.1                3 undirected_path_length  6.61e+3 Flow Unconnect…
#>  7 1000.1 101.1                3 prop_shared_catchment   0       Shared Catchme…
#>  8 1000.1 101.1                3 prop_shared_logcatchme… 0       Shared log-Cat…
#>  9 1000.1 1037.1               4 directed_path_length    0       Flow Connected 
#> 10 1000.1 1037.1               4 undirected_path_length  1.43e+4 Flow Unconnect…
#> # ℹ 4,046 more rows
…
print(ihydro_layers(hydro_out_sparse),n=40)
#> # A tibble: 45 × 3
#>    layer_name         data_type data_group   
#>    <chr>              <chr>     <chr>        
#>  1 dem_final          Raster    hydro        
#>  2 dem_d8             Raster    hydro        
#>  3 dem_accum_d8       Raster    hydro        
#>  4 dem_accum_d8_sca   Raster    hydro        
#>  5 dem_streams_d8     Raster    hydro        
#>  6 elev_ned_30m       Raster    loi          
#>  7 GEO_NAME.CZam      Raster    loi          
#>  8 GEO_NAME.CZbg      Raster    loi          
#>  9 GEO_NAME.CZfg      Raster    loi          
#> 10 GEO_NAME.CZg       Raster    loi          
#> 11 GEO_NAME.CZig      Raster    loi          
#> 12 GEO_NAME.CZlg      Raster    loi          
#> 13 GEO_NAME.CZve      Raster    loi          
#> 14 GEO_NAME.Km        Raster    loi          
#> 15 landcover_1        Raster    loi          
#> 16 landcover_2        Raster    loi          
#> 17 landcover_3        Raster    loi          
#> 18 landcover_4        Raster    loi          
#> 19 landcover_5        Raster    loi          
#> 20 landcover_6        Raster    loi          
#> 21 landcover_7        Raster    loi          
#> 22 pontsrc_pontsrc    Raster    loi          
#> 23 slope              Raster    loi          
#> 24 ds_flowpaths       Table     flow_path    
#> 25 us_flowpaths       Table     flow_path    
#> 26 Subbasins_poly     Table     hydro        
#> 27 stream_lines       Table     hydro        
#> 28 stream_links       Table     hydro        
#> 29 stream_links_attr  Table     hydro        
#> 30 stream_points      Table     hydro        
#> 31 stream_points_attr Table     hydro        
#> 32 DEM_Extent         Table     meta         
#> 33 loi_meta           Table     meta         
#> 34 site_id_col        Table     meta         
#> 35 fcon_pwise_dist    Table     pwise_dist   
#> 36 funcon_pwise_dist  Table     pwise_dist   
#> 37 original_points    Table     sample_points
#> 38 snapped_points     Table     sample_points
#> 39 Subbasins_poly     Vector    hydro        
#> 40 stream_lines       Vector    hydro        
#> # ℹ 5 more rows
```
…
ihydro_layers(hydro_out)
#> # A tibble: 36 × 3
#>    layer_name                   data_type data_group
#>    <chr>                        <chr>     <chr>     
#>  1 dem_final                    Raster    hydro     
#>  2 dem_d8                       Raster    hydro     
#>  3 dem_accum_d8                 Raster    hydro     
#>  4 dem_accum_d8_sca             Raster    hydro     
#>  5 dem_streams_d8               Raster    hydro     
#>  6 iFLS                         Raster    iDW       
#>  7 HAiFLS                       Raster    iDW       
#>  8 HAiFLO_unn_group35hoDAyixnoF Raster    iDW       
#>  9 HAiFLO_unn_grouph8iAAzM2lD5r Raster    iDW       
#> 10 iFLO_unn_group35hoDAyixnoF   Raster    iDW       
#> # ℹ 26 more rows
…
final_attributes
#> # A tibble: 45 × 95
#>    link_id site_id status   slope_lumped_mean slope_lumped_sd slope_lumped_min
#>    <chr>   <chr>   <chr>                <dbl>           <dbl>            <dbl>
#>  1 1123.1  41      Complete              2.43            1.57          0.00253
#>  2 1111.1  1       Complete              3.03            1.46          0.203  
#>  3 101.1   62      Complete              3.13            1.81          0.0667 
#>  4 138.1   26      Complete              2.82            1.37          0.152  
#>  5 1077.1  4       Complete              3.37            1.75          0.146  
#>  6 1059.1  7       Complete              2.75            1.75          0.0323 
#>  7 1053.1  5       Complete              2.52            1.59          0.0323 
#>  8 1078.1  8       Complete              3.23            1.90          0.0323 
#>  9 1084.1  66      Complete              3.97            2.04          0.110  
#> 10 1101.1  28      Complete              3.33            1.80          0.152  
#> # ℹ 35 more rows
#> # ℹ 89 more variables: slope_lumped_max <dbl>, slope_iFLS_mean <dbl>,
#> #   slope_HAiFLS_mean <dbl>, slope_iFLO_mean <dbl>, slope_HAiFLO_mean <dbl>,
#> #   slope_HAiFLO_sd <dbl>, slope_HAiFLS_sd <dbl>, slope_iFLO_sd <dbl>,
#> #   slope_iFLS_sd <dbl>, landcover_1_lumped_prop <dbl>,
#> #   landcover_1_iFLS_prop <dbl>, landcover_1_HAiFLS_prop <dbl>,
#> #   landcover_1_iFLO_prop <dbl>, landcover_1_HAiFLO_prop <dbl>, …
```
…
final_attributes_all
#> # A tibble: 1,247 × 95
#>    link_id site_id status   slope_lumped_mean slope_lumped_sd slope_lumped_min
#>    <chr>   <chr>   <chr>                <dbl>           <dbl>            <dbl>
#>  1 6       <NA>    Complete              3.93            1.90           0.178 
#>  2 5       <NA>    Complete              4.73            2.43           0.385 
#>  3 1206    <NA>    Complete              3.97            1.91           0.0656
#>  4 1214    <NA>    Complete              4.09            2.34           0.119 
#>  5 1212    <NA>    Complete              3.58            2.22           0.0485
#>  6 1       <NA>    Complete              4.40            2.32           0.330 
#>  7 1203    <NA>    Complete              3.65            2.18           0.117 
#>  8 2       <NA>    Complete              3.47            1.73           0.296 
#>  9 1205    <NA>    Complete              4.33            2.59           0.162 
#> 10 33      <NA>    Complete              4.64            2.82           0.204 
#> # ℹ 1,237 more rows
#> # ℹ 89 more variables: slope_lumped_max <dbl>, slope_iFLS_mean <dbl>,
#> #   slope_HAiFLS_mean <dbl>, slope_iFLO_mean <dbl>, slope_HAiFLO_mean <dbl>,
#> #   slope_HAiFLO_sd <dbl>, slope_HAiFLS_sd <dbl>, slope_iFLO_sd <dbl>,
#> #   slope_iFLS_sd <dbl>, landcover_1_lumped_prop <dbl>,
#> #   landcover_1_iFLS_prop <dbl>, landcover_1_HAiFLS_prop <dbl>,
#> #   landcover_1_iFLO_prop <dbl>, landcover_1_HAiFLO_prop <dbl>, …
…
final_attributes_slow
#> # A tibble: 1,247 × 95
#>    link_id site_id products slope_mean slope_sd slope_min slope_max
#>    <chr>   <chr>   <list>        <dbl>    <dbl>     <dbl>     <dbl>
#>  1 6       <NA>    <NULL>         3.93     1.90    0.178       8.26
#>  2 5       <NA>    <NULL>         4.73     2.43    0.385      10.4 
#>  3 1206    <NA>    <NULL>         3.97     1.91    0.0656     12.7 
#>  4 1214    <NA>    <NULL>         4.09     2.34    0.119      15.9 
#>  5 1212    <NA>    <NULL>         3.58     2.22    0.0485     14.5 
#>  6 1       <NA>    <NULL>         4.40     2.32    0.330       9.19
#>  7 1203    <NA>    <NULL>         3.65     2.18    0.117      12.9 
#>  8 2       <NA>    <NULL>         3.47     1.73    0.296       8.18
#>  9 1205    <NA>    <NULL>         4.33     2.59    0.162      17.8 
#> 10 33      <NA>    <NULL>         4.64     2.82    0.204      15.0 
#> # ℹ 1,237 more rows
#> # ℹ 88 more variables: slope_iFLO_distwtd_mean <dbl>,
#> #   slope_iFLO_distwtd_sd <dbl>, slope_iFLS_distwtd_mean <dbl>,
#> #   slope_iFLS_distwtd_sd <dbl>, slope_HAiFLO_distwtd_mean <dbl>,
#> #   slope_HAiFLO_distwtd_sd <dbl>, slope_HAiFLS_distwtd_mean <dbl>,
#> #   slope_HAiFLS_distwtd_sd <dbl>, landcover_1_lumped_prop <dbl>,
#> #   landcover_2_lumped_prop <dbl>, landcover_3_lumped_prop <dbl>, …
…
prediction_data
#> # A tibble: 1,247 × 140
#>    link_id site_id status   slope_lumped_mean slope_lumped_sd slope_lumped_min
#>    <chr>   <chr>   <chr>                <dbl>           <dbl>            <dbl>
#>  1 6       <NA>    Complete              3.93            1.90           0.178 
#>  2 5       <NA>    Complete              4.73            2.43           0.385 
#>  3 1206    <NA>    Complete              3.97            1.91           0.0656
#>  4 1214    <NA>    Complete              4.09            2.34           0.119 
#>  5 1212    <NA>    Complete              3.58            2.22           0.0485
#>  6 1       <NA>    Complete              4.40            2.32           0.330 
#>  7 1203    <NA>    Complete              3.65            2.18           0.117 
#>  8 2       <NA>    Complete              3.47            1.73           0.296 
#>  9 1205    <NA>    Complete              4.33            2.59           0.162 
#> 10 33      <NA>    Complete              4.64            2.82           0.204 
#> # ℹ 1,237 more rows
#> # ℹ 134 more variables: slope_lumped_max <dbl>, slope_iFLS_mean <dbl>,
#> #   slope_HAiFLS_mean <dbl>, slope_iFLO_mean <dbl>, slope_HAiFLO_mean <dbl>,
#> #   slope_HAiFLO_sd <dbl>, slope_HAiFLS_sd <dbl>, slope_iFLO_sd <dbl>,
#> #   slope_iFLS_sd <dbl>, landcover_1_lumped_prop <dbl>,
#> #   landcover_1_iFLS_prop <dbl>, landcover_1_HAiFLS_prop <dbl>,
#> #   landcover_1_iFLO_prop <dbl>, landcover_1_HAiFLO_prop <dbl>, …
```
…
prediction_tbl<-tibble(
  link_id=prediction_data$link_id) %>% 
  bind_cols(
    predict(final_model,
            data=bake(prep(recip),new_data=prediction_data),
            type ="quantiles",quantiles=c(0.25,0.5,0.75))$predictions %>% 
      as_tibble() %>% 
      setNames(c("p25","p50","p75"))
  ) %>% 
  mutate(`Uncertainty` = p75-p25,
         `Predicted`=p50) 

prediction_tbl
#> # A tibble: 1,247 × 6
#>    link_id   p25   p50   p75 Uncertainty Predicted
#>    <chr>   <dbl> <dbl> <dbl>       <dbl>     <dbl>
#>  1 6         1       3     4         3           3
#>  2 5         2.5     3     4         1.5         3
#>  3 1206      1       1     3         2           1
#>  4 1214      1       2     3         2           2
#>  5 1212      2       3     4         2           3
#>  6 1         3       4     8         5           4
#>  7 1203      2       3     5         3           3
#>  8 2         2       8     8         6           8
#>  9 1205      3       4     6         3           4
#> 10 33        3       4     5         2           4
#> # ℹ 1,237 more rows
…
